{
    "db": {
        "mongodb": {
            "url": "mongodb://cruzu_client:Sa2EI9lH@SG-MongoCruzu26-2611.servers.mongodirector.com:27017/cruzu",
            "collections":{},
            "dbOptions": {
                "auto_reconnect": true,
                "poolSize": 20,
                "socketOptions": {"keepAlive": 1}
            }
        }
    },
    "main": {
        "port": 5000
    },
    "apps":{
        "facebook":{
            "clientID":"1473573422873066",
            "clientSecret":"8ddaccef525f95f7e5ed00ac984a7acd",
            "callbackURL": "http://162.222.227.147:5000/auth/service/facebook/callback"
        }
    },
    "host": {
        "hostName" : "http://localhost"
    },
    "queryURLBase" : "http://localhost:3002",
    "offerUrl": "http://localhost:3002/offers"
}